<?xml version="1.0" encoding="UTF-8"?>
<svg width="20px" height="20px" viewBox="0 0 20 20" version="1.1" xmlns="http://www.w3.org/2000/svg" xmlns:xlink="http://www.w3.org/1999/xlink">
    <title>Social Media / Linkedin / Linkedin white</title>
    <g id="Symbols" stroke="none" stroke-width="1" fill="none" fill-rule="evenodd">
        <g id="Footer" transform="translate(-214.000000, -329.000000)" fill="#FFFFFF">
            <g id="Social-Media-/-Linkedin-/-Linkedin-white" transform="translate(214.000000, 329.000000)">
                <path d="M17.043125,17.041875 L14.076875,17.041875 L14.076875,12.400625 C14.076875,11.29375 14.058125,9.87 12.535625,9.87 C10.9925,9.87 10.756875,11.07625 10.756875,12.32125 L10.756875,17.041875 L7.79375,17.041875 L7.79375,7.4975 L10.6375,7.4975 L10.6375,8.8025 L10.678125,8.8025 C11.07375,8.051875 12.04125,7.260625 13.484375,7.260625 C16.488125,7.260625 17.043125,9.236875 17.043125,11.8075 L17.043125,17.041875 Z M4.449375,6.19375 C3.49625,6.19375 2.728125,5.423125 2.728125,4.473125 C2.728125,3.52375 3.49625,2.753125 4.449375,2.753125 C5.398125,2.753125 6.16875,3.52375 6.16875,4.473125 C6.16875,5.423125 5.398125,6.19375 4.449375,6.19375 L4.449375,6.19375 Z M5.933125,17.041875 L2.96375,17.041875 L2.96375,7.4975 L5.933125,7.4975 L5.933125,17.041875 Z M0.83375,0 C0.373125,0 0,0.373125 0,0.833125 L0,19.16625 C0,19.626875 0.373125,20 0.83375,20 L19.166875,20 C19.626875,20 20,19.626875 20,19.16625 L20,0.833125 C20,0.373125 19.626875,0 19.166875,0 L0.83375,0 Z" id="Fill-33"></path>
            </g>
        </g>
    </g>
</svg>