<?xml version="1.0" encoding="UTF-8"?>
<svg width="301px" height="301px" viewBox="0 0 301 301" version="1.1" xmlns="http://www.w3.org/2000/svg" xmlns:xlink="http://www.w3.org/1999/xlink">
    <title>Shape Copy</title>
    <g id="Front-Page" stroke="none" stroke-width="1" fill="none" fill-rule="evenodd">
        <g id="Fronpage-desktop-Copy" transform="translate(-186.000000, -2330.000000)" fill="#E2E6ED" fill-rule="nonzero">
            <path d="M378.65601,2547.67547 C366.388747,2555.39523 352.02046,2560 336.5,2560 C320.97954,2560 306.611253,2555.39523 294.34399,2547.67547 C286.007673,2542.46124 278.891304,2535.75724 272.994885,2527.90204 C263.031969,2514.62947 257,2498.37734 257,2480.5 C257,2467.09199 260.659847,2454.69974 266.488491,2443.59412 C273.06266,2431.20187 282.551151,2420.77342 294.34399,2413.32453 C306.611253,2405.60477 320.97954,2401 336.5,2401 C352.02046,2401 366.388747,2405.60477 378.65601,2413.32453 C390.448849,2420.77342 400.005115,2431.20187 406.511509,2443.59412 C412.340153,2454.63203 416,2467.09199 416,2480.5 C416,2498.30963 409.900256,2514.62947 400.005115,2527.90204 C394.176471,2535.75724 386.992327,2542.46124 378.65601,2547.67547 M482.256641,2443.58618 C469.178523,2391.90684 429.537596,2350.92912 378.648131,2336.09586 C365.231202,2332.16742 351.13665,2330 336.5,2330 C321.86335,2330 307.701036,2332.16742 294.351869,2336.09586 C243.394642,2350.92912 203.753715,2391.90684 190.743359,2443.58618 C187.761819,2455.43924 186,2467.69869 186,2480.5 C186,2497.09428 188.778253,2512.94352 193.724899,2527.91224 C209.242458,2574.57943 246.91828,2611.08686 294.351869,2624.90414 C307.768798,2628.83258 321.86335,2631 336.5,2631 C351.13665,2631 365.298964,2628.83258 378.648131,2624.90414 C426.08172,2611.08686 463.757542,2574.57943 479.275101,2527.91224 C484.221747,2513.01125 487,2497.09428 487,2480.5 C487,2467.69869 485.238181,2455.37151 482.256641,2443.58618" id="Shape-Copy"></path>
        </g>
    </g>
</svg>